Blog - Were Alex Morgan and Mallory Pugh fit for NWSL MVP?
…
Code

playerzscore %>% arrange(desc(TotalZscore))

# A tibble: 314 × 9
   Player        Squad   goals…¹ assis…² minut…³ goals…⁴ assis…⁵ minut…⁶ Total…⁷
   <chr>         <chr>     <dbl>   <dbl>   <dbl>   <dbl>   <dbl>   <dbl>   <dbl>
 1 Mallory Pugh  Red St…   0.688   0.375    77.7   4.00    3.94   0.751     8.69
 2 Alex Morgan   Wave      0.882   0.176    84.4   5.28    1.53   1.00      7.81
 3 Debinha       Courage   0.667   0.222    87.6   3.86    2.09   1.12      7.07
 4 Emily Gray    Courage   0       0.667    58.3  -0.509   7.49   0.0323    7.01
 5 Sophia Smith  Thorns    0.778   0.167    80.4   4.59    1.41   0.853     6.86
 6 Kerolin       Courage   0.462   0.308    85.6   2.52    3.12   1.05      6.69
 7 Rachel Daly   Dash      0.667   0.167    89.8   3.86    1.41   1.20      6.48
 8 Megan Rapinoe Reign     0.5     0.286    66.3   2.77    2.86   0.328     5.96
 9 Amy Turner    Pride     1       0        45     6.05   -0.616 -0.463     4.97
10 Ebony Salmon  Dash      0.75    0        80.9   4.41   -0.616  0.871     4.67
# … with 304 more rows, and abbreviated variable names ¹​goalspermatch,
#   ²​assistspermatch, ³​minutespermatch, ⁴​goalszscore, ⁵​assistszscore,
#   ⁶​minuteszscore, ⁷​TotalZscore
…
